verilog/testbench/RAM.vcd
$date
	Mon May  9 15:29:35 2022
$end
$version
	Icarus Verilog
$end
$timescale
	1s
$end
$scope module tb_RAM $end
$var wire 4096 ! test_q [4095:0] $end
$var wire 16 " q [15:0] $end
$var reg 8 # addr_r [7:0] $end
$var reg 8 $ addr_w [7:0] $end
$var reg 1 % clock $end
$var reg 16 & d [15:0] $end
$var reg 1 ' reset $end
$var reg 1 ( we $end
$var integer 32 ) i [31:0] $end
$var integer 32 * j [31:0] $end
$scope module RAM $end
$var wire 8 + addr_r [7:0] $end
$var wire 8 , addr_w [7:0] $end
$var wire 1 % clock $end
$var wire 16 - d [15:0] $end
$var wire 16 . q [15:0] $end
$var wire 1 ' reset $end
$var wire 1 ( we $end
$var wire 4096 / test_q [4095:0] $end
$var integer 32 0 ri [31:0] $end
$scope begin genblk1[0] $end
$upscope $end
$scope begin genblk1[1] $end
$upscope $end
$scope begin genblk1[2] $end
$upscope $end
$scope begin genblk1[3] $end
$upscope $end
$scope begin genblk1[4] $end
$upscope $end
$scope begin genblk1[5] $end
$upscope $end
$scope begin genblk1[6] $end
$upscope $end
$scope begin genblk1[7] $end
$upscope $end
$scope begin genblk1[8] $end
$upscope $end
$scope begin genblk1[9] $end
$upscope $end
$scope begin genblk1[10] $end
$upscope $end
$scope begin genblk1[11] $end
$upscope $end
$scope begin genblk1[12] $end
$upscope $end
$scope begin genblk1[13] $end
$upscope $end
$scope begin genblk1[14] $end
$upscope $end
$scope begin genblk1[15] $end
$upscope $end
$scope begin genblk1[16] $end
$upscope $end
$scope begin genblk1[17] $end
$upscope $end
$scope begin genblk1[18] $end
$upscope $end
$scope begin genblk1[19] $end
$upscope $end
$scope begin genblk1[20] $end
$upscope $end
$scope begin genblk1[21] $end
$upscope $end
$scope begin genblk1[22] $end
$upscope $end
$scope begin genblk1[23] $end
$upscope $end
$scope begin genblk1[24] $end
$upscope $end
$scope begin genblk1[25] $end
$upscope $end
$scope begin genblk1[26] $end
$upscope $end
$scope begin genblk1[27] $end
$upscope $end
$scope begin genblk1[28] $end
$upscope $end
$scope begin genblk1[29] $end
$upscope $end
$scope begin genblk1[30] $end
$upscope $end
$scope begin genblk1[31] $end
$upscope $end
$scope begin genblk1[32] $end
$upscope $end
$scope begin genblk1[33] $end
$upscope $end
$scope begin genblk1[34] $end
$upscope $end
$scope begin genblk1[35] $end
$upscope $end
$scope begin genblk1[36] $end
$upscope $end
$scope begin genblk1[37] $end
$upscope $end
$scope begin genblk1[38] $end
$upscope $end
$scope begin genblk1[39] $end
$upscope $end
$scope begin genblk1[40] $end
$upscope $end
$scope begin genblk1[41] $end
$upscope $end
$scope begin genblk1[42] $end
$upscope $end
$scope begin genblk1[43] $end
$upscope $end
$scope begin genblk1[44] $end
$upscope $end
$scope begin genblk1[45] $end
$upscope $end
$scope begin genblk1[46] $end
$upscope $end
$scope begin genblk1[47] $end
$upscope $end
$scope begin genblk1[48] $end
$upscope $end
$scope begin genblk1[49] $end
$upscope $end
$scope begin genblk1[50] $end
$upscope $end
$scope begin genblk1[51] $end
$upscope $end
$scope begin genblk1[52] $end
$upscope $end
$scope begin genblk1[53] $end
$upscope $end
$scope begin genblk1[54] $end
$upscope $end
$scope begin genblk1[55] $end
$upscope $end
$scope begin genblk1[56] $end
$upscope $end
$scope begin genblk1[57] $end
$upscope $end
$scope begin genblk1[58] $end
$upscope $end
$scope begin genblk1[59] $end
$upscope $end
$scope begin genblk1[60] $end
$upscope $end
$scope begin genblk1[61] $end
$upscope $end
$scope begin genblk1[62] $end
$upscope $end
$scope begin genblk1[63] $end
$upscope $end
$scope begin genblk1[64] $end
$upscope $end
$scope begin genblk1[65] $end
$upscope $end
$scope begin genblk1[66] $end
$upscope $end
$scope begin genblk1[67] $end
$upscope $end
$scope begin genblk1[68] $end
$upscope $end
$scope begin genblk1[69] $end
$upscope $end
$scope begin genblk1[70] $end
$upscope $end
$scope begin genblk1[71] $end
$upscope $end
$scope begin genblk1[72] $end
$upscope $end
$scope begin genblk1[73] $end
$upscope $end
$scope begin genblk1[74] $end
$upscope $end
$scope begin genblk1[75] $end
$upscope $end
$scope begin genblk1[76] $end
$upscope $end
$scope begin genblk1[77] $end
$upscope $end
$scope begin genblk1[78] $end
$upscope $end
$scope begin genblk1[79] $end
$upscope $end
$scope begin genblk1[80] $end
$upscope $end
$scope begin genblk1[81] $end
$upscope $end
$scope begin genblk1[82] $end
$upscope $end
$scope begin genblk1[83] $end
$upscope $end
$scope begin genblk1[84] $end
$upscope $end
$scope begin genblk1[85] $end
$upscope $end
$scope begin genblk1[86] $end
$upscope $end
$scope begin genblk1[87] $end
$upscope $end
$scope begin genblk1[88] $end
$upscope $end
$scope begin genblk1[89] $end
$upscope $end
$scope begin genblk1[90] $end
$upscope $end
$scope begin genblk1[91] $end
$upscope $end
$scope begin genblk1[92] $end
$upscope $end
$scope begin genblk1[93] $end
$upscope $end
$scope begin genblk1[94] $end
$upscope $end
$scope begin genblk1[95] $end
$upscope $end
$scope begin genblk1[96] $end
$upscope $end
$scope begin genblk1[97] $end
$upscope $end
$scope begin genblk1[98] $end
$upscope $end
$scope begin genblk1[99] $end
$upscope $end
$scope begin genblk1[100] $end
$upscope $end
$scope begin genblk1[101] $end
$upscope $end
$scope begin genblk1[102] $end
$upscope $end
$scope begin genblk1[103] $end
$upscope $end
$scope begin genblk1[104] $end
$upscope $end
$scope begin genblk1[105] $end
$upscope $end
$scope begin genblk1[106] $end
$upscope $end
$scope begin genblk1[107] $end
$upscope $end
$scope begin genblk1[108] $end
$upscope $end
$scope begin genblk1[109] $end
$upscope $end
$scope begin genblk1[110] $end
$upscope $end
$scope begin genblk1[111] $end
$upscope $end
$scope begin genblk1[112] $end
$upscope $end
$scope begin genblk1[113] $end
$upscope $end
$scope begin genblk1[114] $end
$upscope $end
$scope begin genblk1[115] $end
$upscope $end
$scope begin genblk1[116] $end
$upscope $end
$scope begin genblk1[117] $end
$upscope $end
$scope begin genblk1[118] $end
$upscope $end
$scope begin genblk1[119] $end
$upscope $end
$scope begin genblk1[120] $end
$upscope $end
$scope begin genblk1[121] $end
$upscope $end
$scope begin genblk1[122] $end
$upscope $end
$scope begin genblk1[123] $end
$upscope $end
$scope begin genblk1[124] $end
$upscope $end
$scope begin genblk1[125] $end
$upscope $end
$scope begin genblk1[126] $end
$upscope $end
$scope begin genblk1[127] $end
$upscope $end
$scope begin genblk1[128] $end
$upscope $end
$scope begin genblk1[129] $end
$upscope $end
$scope begin genblk1[130] $end
$upscope $end
$scope begin genblk1[131] $end
$upscope $end
$scope begin genblk1[132] $end
$upscope $end
$scope begin genblk1[133] $end
$upscope $end
$scope begin genblk1[134] $end
$upscope $end
$scope begin genblk1[135] $end
$upscope $end
$scope begin genblk1[136] $end
$upscope $end
$scope begin genblk1[137] $end
$upscope $end
$scope begin genblk1[138] $end
$upscope $end
$scope begin genblk1[139] $end
$upscope $end
$scope begin genblk1[140] $end
$upscope $end
$scope begin genblk1[141] $end
$upscope $end
$scope begin genblk1[142] $end
$upscope $end
$scope begin genblk1[143] $end
$upscope $end
$scope begin genblk1[144] $end
$upscope $end
$scope begin genblk1[145] $end
$upscope $end
$scope begin genblk1[146] $end
$upscope $end
$scope begin genblk1[147] $end
$upscope $end
$scope begin genblk1[148] $end
$upscope $end
$scope begin genblk1[149] $end
$upscope $end
$scope begin genblk1[150] $end
$upscope $end
$scope begin genblk1[151] $end
$upscope $end
$scope begin genblk1[152] $end
$upscope $end
$scope begin genblk1[153] $end
$upscope $end
$scope begin genblk1[154] $end
$upscope $end
$scope begin genblk1[155] $end
$upscope $end
$scope begin genblk1[156] $end
$upscope $end
$scope begin genblk1[157] $end
$upscope $end
$scope begin genblk1[158] $end
$upscope $end
$scope begin genblk1[159] $end
$upscope $end
$scope begin genblk1[160] $end
$upscope $end
$scope begin genblk1[161] $end
$upscope $end
$scope begin genblk1[162] $end
$upscope $end
$scope begin genblk1[163] $end
$upscope $end
$scope begin genblk1[164] $end
$upscope $end
$scope begin genblk1[165] $end
$upscope $end
$scope begin genblk1[166] $end
$upscope $end
$scope begin genblk1[167] $end
$upscope $end
$scope begin genblk1[168] $end
$upscope $end
$scope begin genblk1[169] $end
$upscope $end
$scope begin genblk1[170] $end
$upscope $end
$scope begin genblk1[171] $end
$upscope $end
$scope begin genblk1[172] $end
$upscope $end
$scope begin genblk1[173] $end
$upscope $end
$scope begin genblk1[174] $end
$upscope $end
$scope begin genblk1[175] $end
$upscope $end
$scope begin genblk1[176] $end
$upscope $end
$scope begin genblk1[177] $end
$upscope $end
$scope begin genblk1[178] $end
$upscope $end
$scope begin genblk1[179] $end
$upscope $end
$scope begin genblk1[180] $end
$upscope $end
$scope begin genblk1[181] $end
$upscope $end
$scope begin genblk1[182] $end
$upscope $end
$scope begin genblk1[183] $end
$upscope $end
$scope begin genblk1[184] $end
$upscope $end
$scope begin genblk1[185] $end
$upscope $end
$scope begin genblk1[186] $end
$upscope $end
$scope begin genblk1[187] $end
$upscope $end
$scope begin genblk1[188] $end
$upscope $end
$scope begin genblk1[189] $end
$upscope $end
$scope begin genblk1[190] $end
$upscope $end
$scope begin genblk1[191] $end
$upscope $end
$scope begin genblk1[192] $end
$upscope $end
$scope begin genblk1[193] $end
$upscope $end
$scope begin genblk1[194] $end
$upscope $end
$scope begin genblk1[195] $end
$upscope $end
$scope begin genblk1[196] $end
$upscope $end
$scope begin genblk1[197] $end
$upscope $end
$scope begin genblk1[198] $end
$upscope $end
$scope begin genblk1[199] $end
$upscope $end
$scope begin genblk1[200] $end
$upscope $end
$scope begin genblk1[201] $end
$upscope $end
$scope begin genblk1[202] $end
$upscope $end
$scope begin genblk1[203] $end
$upscope $end
$scope begin genblk1[204] $end
$upscope $end
$scope begin genblk1[205] $end
$upscope $end
$scope begin genblk1[206] $end
$upscope $end
$scope begin genblk1[207] $end
$upscope $end
$scope begin genblk1[208] $end
$upscope $end
$scope begin genblk1[209] $end
$upscope $end
$scope begin genblk1[210] $end
$upscope $end
$scope begin genblk1[211] $end
$upscope $end
$scope begin genblk1[212] $end
$upscope $end
$scope begin genblk1[213] $end
$upscope $end
$scope begin genblk1[214] $end
$upscope $end
$scope begin genblk1[215] $end
$upscope $end
$scope begin genblk1[216] $end
$upscope $end
$scope begin genblk1[217] $end
$upscope $end
$scope begin genblk1[218] $end
$upscope $end
$scope begin genblk1[219] $end
$upscope $end
$scope begin genblk1[220] $end
$upscope $end
$scope begin genblk1[221] $end
$upscope $end
$scope begin genblk1[222] $end
$upscope $end
$scope begin genblk1[223] $end
$upscope $end
$scope begin genblk1[224] $end
$upscope $end
$scope begin genblk1[225] $end
$upscope $end
$scope begin genblk1[226] $end
$upscope $end
$scope begin genblk1[227] $end
$upscope $end
$scope begin genblk1[228] $end
$upscope $end
$scope begin genblk1[229] $end
$upscope $end
$scope begin genblk1[230] $end
$upscope $end
$scope begin genblk1[231] $end
$upscope $end
$scope begin genblk1[232] $end
$upscope $end
$scope begin genblk1[233] $end
$upscope $end
$scope begin genblk1[234] $end
$upscope $end
$scope begin genblk1[235] $end
$upscope $end
$scope begin genblk1[236] $end
$upscope $end
$scope begin genblk1[237] $end
$upscope $end
$scope begin genblk1[238] $end
$upscope $end
$scope begin genblk1[239] $end
$upscope $end
$scope begin genblk1[240] $end
$upscope $end
$scope begin genblk1[241] $end
$upscope $end
$scope begin genblk1[242] $end
$upscope $end
$scope begin genblk1[243] $end
$upscope $end
$scope begin genblk1[244] $end
$upscope $end
$scope begin genblk1[245] $end
$upscope $end
$scope begin genblk1[246] $end
$upscope $end
$scope begin genblk1[247] $end
$upscope $end
$scope begin genblk1[248] $end
$upscope $end
$scope begin genblk1[249] $end
$upscope $end
$scope begin genblk1[250] $end
$upscope $end
$scope begin genblk1[251] $end
$upscope $end
$scope begin genblk1[252] $end
$upscope $end
$scope begin genblk1[253] $end
$upscope $end
$scope begin genblk1[254] $end
$upscope $end
$scope begin genblk1[255] $end
$upscope $end
$upscope $end
$upscope $end
$enddefinitions $end
#0
$dumpvars
b100000000 0
b0 /
b0 .
b0 -
b0 ,
b0 +
bx *
bx )
0(
1'
b0 &
0%
b0 $
b0 #
b0 "
b0 !
$end
#5
b100000000 0
1%
#10
0%
0'
#11
1(
b0 )
#15
1%
#20
0%
#21
b11010100100100 &
b11010100100100 -
b1 )
b0 *
#25
b11010100100100 !
b11010100100100 /
b11010100100100 "
b11010100100100 .
1%
#30
0%
#31
b1 $
b1 ,
b101111010000001 &
b101111010000001 -
b10 )
b1 *
#35
b1011110100000010011010100100100 !
b1011110100000010011010100100100 /
1%
#40
0%
#41
b10 $
b10 ,
b1101011000001001 &
b1101011000001001 -
b101111010000001 "
b101111010000001 .
b1 #
b1 +
b11 )
b10 *
#45
b110101100000100101011110100000010011010100100100 !
b110101100000100101011110100000010011010100100100 /
1%
#50
0%
#51
b11 $
b11 ,
b101011001100011 &
b101011001100011 -
b1101011000001001 "
b1101011000001001 .
b10 #
b10 +
b100 )
b11 *
#55
b101011001100011110101100000100101011110100000010011010100100100 !
b101011001100011110101100000100101011110100000010011010100100100 /
1%
#60
0%
#61
b100 $
b100 ,
b111101100001101 &
b111101100001101 -
b101011001100011 "
b101011001100011 .
b11 #
b11 +
b101 )
b100 *
#65
b1111011000011010101011001100011110101100000100101011110100000010011010100100100 !
b1111011000011010101011001100011110101100000100101011110100000010011010100100100 /
1%
#70
0%
#71
b101 $
b101 ,
b1001100110001101 &
b1001100110001101 -
b111101100001101 "
b111101100001101 .
b100 #
b100 +
b110 )
b101 *
#75
b100110011000110101111011000011010101011001100011110101100000100101011110100000010011010100100100 !
b100110011000110101111011000011010101011001100011110101100000100101011110100000010011010100100100 /
1%
#80
0%
#81
b110 $
b110 ,
b1000010001100101 &
b1000010001100101 -
b1001100110001101 "
b1001100110001101 .
b101 #
b101 +
b111 )
b110 *
#85
b1000010001100101100110011000110101111011000011010101011001100011110101100000100101011110100000010011010100100100 !
b1000010001100101100110011000110101111011000011010101011001100011110101100000100101011110100000010011010100100100 /
1%
#90
0%
#91
b111 $
b111 ,
b101001000010010 &
b101001000010010 -
b1000010001100101 "
b1000010001100101 .
b110 #
b110 +
b1000 )
b111 *
#95
b1010010000100101000010001100101100110011000110101111011000011010101011001100011110101100000100101011110100000010011010100100100 !
b1010010000100101000010001100101100110011000110101111011000011010101011001100011110101100000100101011110100000010011010100100100 /
1%
#100
0%
#101
b1000 $
b1000 ,
b1110001100000001 &
b1110001100000001 -
b101001000010010 "
b101001000010010 .
b111 #
b111 +
b1001 )
b1000 *
#105
b111000110000000101010010000100101000010001100101100110011000110101111011000011010101011001100011110101100000100101011110100000010011010100100100 !
b111000110000000101010010000100101000010001100101100110011000110101111011000011010101011001100011110101100000100101011110100000010011010100100100 /
1%
#110
0%
#111
b1001 $
b1001 ,
b1100110100001101 &
b1100110100001101 -
b1110001100000001 "
b1110001100000001 .
b1000 #
b1000 +
b1010 )
b1001 *
#115
b1100110100001101111000110000000101010010000100101000010001100101100110011000110101111011000011010101011001100011110101100000100101011110100000010011010100100100 !
b1100110100001101111000110000000101010010000100101000010001100101100110011000110101111011000011010101011001100011110101100000100101011110100000010011010100100100 /
1%
#120
0%
#121
b1010 $
b1010 ,
b1111000101110110 &
b1111000101110110 -
b1100110100001101 "
b1100110100001101 .
b1001 #
b1001 +
b1011 )
b1010 *
#125
b11110001011101101100110100001101111000110000000101010010000100101000010001100101100110011000110101111011000011010101011001100011110101100000100101011110100000010011010100100100 !
b11110001011101101100110100001101111000110000000101010010000100101000010001100101100110011000110101111011000011010101011001100011110101100000100101011110100000010011010100100100 /
1%
#130
0%
#131
b1011 $
b1011 ,
b1100110100111101 &
b1100110100111101 -
b1111000101110110 "
b1111000101110110 .
b1010 #
b1010 +
b1100 )
b1011 *
#135
b110011010011110111110001011101101100110100001101111000110000000101010010000100101000010001100101100110011000110101111011000011010101011001100011110101100000100101011110100000010011010100100100 !
b110011010011110111110001011101101100110100001101111000110000000101010010000100101000010001100101100110011000110101111011000011010101011001100011110101100000100101011110100000010011010100100100 /
1%
#140
0%
#141
b1100 $
b1100 ,
b101011111101101 &
b101011111101101 -
b1100110100111101 "
b1100110100111101 .
b1011 #
b1011 +
b1101 )
b1100 *
#145
b101011111101101110011010011110111110001011101101100110100001101111000110000000101010010000100101000010001100101100110011000110101111011000011010101011001100011110101100000100101011110100000010011010100100100 !
b101011111101101110011010011110111110001011101101100110100001101111000110000000101010010000100101000010001100101100110011000110101111011000011010101011001100011110101100000100101011110100000010011010100100100 /
1%
#150
0%
#151
b1101 $
b1101 ,
b1111011110001100 &
b1111011110001100 -
b101011111101101 "
b101011111101101 .
b1100 #
b1100 +
b1110 )
b1101 *
#155
b11110111100011000101011111101101110011010011110111110001011101101100110100001101111000110000000101010010000100101000010001100101100110011000110101111011000011010101011001100011110101100000100101011110100000010011010100100100 !
b11110111100011000101011111101101110011010011110111110001011101101100110100001101111000110000000101010010000100101000010001100101100110011000110101111011000011010101011001100011110101100000100101011110100000010011010100100100 /
1%
#160
0%
#161
b1110 $
b1110 ,
b1110100111111001 &
b1110100111111001 -
b1111011110001100 "
b1111011110001100 .
b1101 #
b1101 +
b1111 )
b1110 *
#165
b111010011111100111110111100011000101011111101101110011010011110111110001011101101100110100001101111000110000000101010010000100101000010001100101100110011000110101111011000011010101011001100011110101100000100101011110100000010011010100100100 !
b111010011111100111110111100011000101011111101101110011010011110111110001011101101100110100001101111000110000000101010010000100101000010001100101100110011000110101111011000011010101011001100011110101100000100101011110100000010011010100100100 /
1%
#170
0%
#171
b1111 $
b1111 ,
b10010011000110 &
b10010011000110 -
b1110100111111001 "
b1110100111111001 .
b1110 #
b1110 +
b10000 )
b1111 *
#175
b10010011000110111010011111100111110111100011000101011111101101110011010011110111110001011101101100110100001101111000110000000101010010000100101000010001100101100110011000110101111011000011010101011001100011110101100000100101011110100000010011010100100100 !
b10010011000110111010011111100111110111100011000101011111101101110011010011110111110001011101101100110100001101111000110000000101010010000100101000010001100101100110011000110101111011000011010101011001100011110101100000100101011110100000010011010100100100 /
1%
#180
0%
#181
b10000 $
b10000 ,
b1000010011000101 &
b1000010011000101 -
b10010011000110 "
b10010011000110 .
b1111 #
b1111 +
b10001 )
b10000 *
#185
b10000100110001010010010011000110111010011111100111110111100011000101011111101101110011010011110111110001011101101100110100001101111000110000000101010010000100101000010001100101100110011000110101111011000011010101011001100011110101100000100101011110100000010011010100100100 !
b10000100110001010010010011000110111010011111100111110111100011000101011111101101110011010011110111110001011101101100110100001101111000110000000101010010000100101000010001100101100110011000110101111011000011010101011001100011110101100000100101011110100000010011010100100100 /
1%
#190
0%
#191
b10001 $
b10001 ,
b1101001010101010 &
b1101001010101010 -
b1000010011000101 "
b1000010011000101 .
b10000 #
b10000 +
b10010 )
b10001 *
#195
b110100101010101010000100110001010010010011000110111010011111100111110111100011000101011111101101110011010011110111110001011101101100110100001101111000110000000101010010000100101000010001100101100110011000110101111011000011010101011001100011110101100000100101011110100000010011010100100100 !
b110100101010101010000100110001010010010011000110111010011111100111110111100011000101011111101101110011010011110111110001011101101100110100001101111000110000000101010010000100101000010001100101100110011000110101111011000011010101011001100011110101100000100101011110100000010011010100100100 /
1%
#200
0%
#201
b10010 $
b10010 ,
b1111011111100101 &
b1111011111100101 -
b1101001010101010 "
b1101001010101010 .
b10001 #
b10001 +
b10011 )
b10010 *
#205
b1111011111100101110100101010101010000100110001010010010011000110111010011111100111110111100011000101011111101101110011010011110111110001011101101100110100001101111000110000000101010010000100101000010001100101100110011000110101111011000011010101011001100011110101100000100101011110100000010011010100100100 !
b1111011111100101110100101010101010000100110001010010010011000110111010011111100111110111100011000101011111101101110011010011110111110001011101101100110100001101111000110000000101010010000100101000010001100101100110011000110101111011000011010101011001100011110101100000100101011110100000010011010100100100 /
1%
#210
0%
#211
b10011 $
b10011 ,
b111001001110111 &
b111001001110111 -
b1111011111100101 "
b1111011111100101 .
b10010 #
b10010 +
b10100 )
b10011 *
#215
b1110010011101111111011111100101110100101010101010000100110001010010010011000110111010011111100111110111100011000101011111101101110011010011110111110001011101101100110100001101111000110000000101010010000100101000010001100101100110011000110101111011000011010101011001100011110101100000100101011110100000010011010100100100 !
b1110010011101111111011111100101110100101010101010000100110001010010010011000110111010011111100111110111100011000101011111101101110011010011110111110001011101101100110100001101111000110000000101010010000100101000010001100101100110011000110101111011000011010101011001100011110101100000100101011110100000010011010100100100 /
1%
#220
0%
#221
b10100 $
b10100 ,
b1101011000010010 &
b1101011000010010 -
b111001001110111 "
b111001001110111 .
b10011 #
b10011 +
b10101 )
b10100 *
#225
b110101100001001001110010011101111111011111100101110100101010101010000100110001010010010011000110111010011111100111110111100011000101011111101101110011010011110111110001011101101100110100001101111000110000000101010010000100101000010001100101100110011000110101111011000011010101011001100011110101100000100101011110100000010011010100100100 !
b110101100001001001110010011101111111011111100101110100101010101010000100110001010010010011000110111010011111100111110111100011000101011111101101110011010011110111110001011101101100110100001101111000110000000101010010000100101000010001100101100110011000110101111011000011010101011001100011110101100000100101011110100000010011010100100100 /
1%
#230
0%
#231
b10101 $
b10101 ,
b1101101110001111 &
b1101101110001111 -
b1101011000010010 "
b1101011000010010 .
b10100 #
b10100 +
b10110 )
b10101 *
#235
b1101101110001111110101100001001001110010011101111111011111100101110100101010101010000100110001010010010011000110111010011111100111110111100011000101011111101101110011010011110111110001011101101100110100001101111000110000000101010010000100101000010001100101100110011000110101111011000011010101011001100011110101100000100101011110100000010011010100100100 !
b1101101110001111110101100001001001110010011101111111011111100101110100101010101010000100110001010010010011000110111010011111100111110111100011000101011111101101110011010011110111110001011101101100110100001101111000110000000101010010000100101000010001100101100110011000110101111011000011010101011001100011110101100000100101011110100000010011010100100100 /
1%
#240
0%
#241
b10110 $
b10110 ,
b110100111110010 &
b110100111110010 -
b1101101110001111 "
b1101101110001111 .
b10101 #
b10101 +
b10111 )
b10110 *
#245
b1101001111100101101101110001111110101100001001001110010011101111111011111100101110100101010101010000100110001010010010011000110111010011111100111110111100011000101011111101101110011010011110111110001011101101100110100001101111000110000000101010010000100101000010001100101100110011000110101111011000011010101011001100011110101100000100101011110100000010011010100100100 !
b1101001111100101101101110001111110101100001001001110010011101111111011111100101110100101010101010000100110001010010010011000110111010011111100111110111100011000101011111101101110011010011110111110001011101101100110100001101111000110000000101010010000100101000010001100101100110011000110101111011000011010101011001100011110101100000100101011110100000010011010100100100 /
1%
#250
0%
#251
b10111 $
b10111 ,
b1001011011001110 &
b1001011011001110 -
b110100111110010 "
b110100111110010 .
b10110 #
b10110 +
b11000 )
b10111 *
#255
b100101101100111001101001111100101101101110001111110101100001001001110010011101111111011111100101110100101010101010000100110001010010010011000110111010011111100111110111100011000101011111101101110011010011110111110001011101101100110100001101111000110000000101010010000100101000010001100101100110011000110101111011000011010101011001100011110101100000100101011110100000010011010100100100 !
b100101101100111001101001111100101101101110001111110101100001001001110010011101111111011111100101110100101010101010000100110001010010010011000110111010011111100111110111100011000101011111101101110011010011110111110001011101101100110100001101111000110000000101010010000100101000010001100101100110011000110101111011000011010101011001100011110101100000100101011110100000010011010100100100 /
1%
#260
0%
#261
b11000 $
b11000 ,
b111101011101000 &
b111101011101000 -
b1001011011001110 "
b1001011011001110 .
b10111 #
b10111 +
b11001 )
b11000 *
#265
b111101011101000100101101100111001101001111100101101101110001111110101100001001001110010011101111111011111100101110100101010101010000100110001010010010011000110111010011111100111110111100011000101011111101101110011010011110111110001011101101100110100001101111000110000000101010010000100101000010001100101100110011000110101111011000011010101011001100011110101100000100101011110100000010011010100100100 !
b111101011101000100101101100111001101001111100101101101110001111110101100001001001110010011101111111011111100101110100101010101010000100110001010010010011000110111010011111100111110111100011000101011111101101110011010011110111110001011101101100110100001101111000110000000101010010000100101000010001100101100110011000110101111011000011010101011001100011110101100000100101011110100000010011010100100100 /
1%
#270
0%
#271
b11001 $
b11001 ,
b100111011000101 &
b100111011000101 -
b111101011101000 "
b111101011101000 .
b11000 #
b11000 +
b11010 )
b11001 *
#275
b1001110110001010111101011101000100101101100111001101001111100101101101110001111110101100001001001110010011101111111011111100101110100101010101010000100110001010010010011000110111010011111100111110111100011000101011111101101110011010011110111110001011101101100110100001101111000110000000101010010000100101000010001100101100110011000110101111011000011010101011001100011110101100000100101011110100000010011010100100100 !
b1001110110001010111101011101000100101101100111001101001111100101101101110001111110101100001001001110010011101111111011111100101110100101010101010000100110001010010010011000110111010011111100111110111100011000101011111101101110011010011110111110001011101101100110100001101111000110000000101010010000100101000010001100101100110011000110101111011000011010101011001100011110101100000100101011110100000010011010100100100 /
1%
#280
0%
#281
b11010 $
b11010 ,
b100100101011100 &
b100100101011100 -
b100111011000101 "
b100111011000101 .
b11001 #
b11001 +
b11011 )
b11010 *
#285
b10010010101110001001110110001010111101011101000100101101100111001101001111100101101101110001111110101100001001001110010011101111111011111100101110100101010101010000100110001010010010011000110111010011111100111110111100011000101011111101101110011010011110111110001011101101100110100001101111000110000000101010010000100101000010001100101100110011000110101111011000011010101011001100011110101100000100101011110100000010011010100100100 !
b10010010101110001001110110001010111101011101000100101101100111001101001111100101101101110001111110101100001001001110010011101111111011111100101110100101010101010000100110001010010010011000110111010011111100111110111100011000101011111101101110011010011110111110001011101101100110100001101111000110000000101010010000100101000010001100101100110011000110101111011000011010101011001100011110101100000100101011110100000010011010100100100 /
1%
#290
0%
#291
b11011 $
b11011 ,
b10100010111101 &
b10100010111101 -
b100100101011100 "
b100100101011100 .
b11010 #
b11010 +
b11100 )
b11011 *
#295
b10100010111101010010010101110001001110110001010111101011101000100101101100111001101001111100101101101110001111110101100001001001110010011101111111011111100101110100101010101010000100110001010010010011000110111010011111100111110111100011000101011111101101110011010011110111110001011101101100110100001101111000110000000101010010000100101000010001100101100110011000110101111011000011010101011001100011110101100000100101011110100000010011010100100100 !
b10100010111101010010010101110001001110110001010111101011101000100101101100111001101001111100101101101110001111110101100001001001110010011101111111011111100101110100101010101010000100110001010010010011000110111010011111100111110111100011000101011111101101110011010011110111110001011101101100110100001101111000110000000101010010000100101000010001100101100110011000110101111011000011010101011001100011110101100000100101011110100000010011010100100100 /
1%
#300
0%
#301
b11100 $
b11100 ,
b101100000101101 &
b101100000101101 -
b10100010111101 "
b10100010111101 .
b11011 #
b11011 +
b11101 )
b11100 *
#305
b1011000001011010010100010111101010010010101110001001110110001010111101011101000100101101100111001101001111100101101101110001111110101100001001001110010011101111111011111100101110100101010101010000100110001010010010011000110111010011111100111110111100011000101011111101101110011010011110111110001011101101100110100001101111000110000000101010010000100101000010001100101100110011000110101111011000011010101011001100011110101100000100101011110100000010011010100100100 !
b1011000001011010010100010111101010010010101110001001110110001010111101011101000100101101100111001101001111100101101101110001111110101100001001001110010011101111111011111100101110100101010101010000100110001010010010011000110111010011111100111110111100011000101011111101101110011010011110111110001011101101100110100001101111000110000000101010010000100101000010001100101100110011000110101111011000011010101011001100011110101100000100101011110100000010011010100100100 /
1%
#310
0%
#311
b11101 $
b11101 ,
b10011001100101 &
b10011001100101 -
b101100000101101 "
b101100000101101 .
b11100 #
b11100 +
b11110 )
b11101 *
#315
b1001100110010101011000001011010010100010111101010010010101110001001110110001010111101011101000100101101100111001101001111100101101101110001111110101100001001001110010011101111111011111100101110100101010101010000100110001010010010011000110111010011111100111110111100011000101011111101101110011010011110111110001011101101100110100001101111000110000000101010010000100101000010001100101100110011000110101111011000011010101011001100011110101100000100101011110100000010011010100100100 !
b1001100110010101011000001011010010100010111101010010010101110001001110110001010111101011101000100101101100111001101001111100101101101110001111110101100001001001110010011101111111011111100101110100101010101010000100110001010010010011000110111010011111100111110111100011000101011111101101110011010011110111110001011101101100110100001101111000110000000101010010000100101000010001100101100110011000110101111011000011010101011001100011110101100000100101011110100000010011010100100100 /
1%
#320
0%
#321
b11110 $
b11110 ,
b110001001100011 &
b110001001100011 -
b10011001100101 "
b10011001100101 .
b11101 #
b11101 +
b11111 )
b11110 *
#325
b110001001100011001001100110010101011000001011010010100010111101010010010101110001001110110001010111101011101000100101101100111001101001111100101101101110001111110101100001001001110010011101111111011111100101110100101010101010000100110001010010010011000110111010011111100111110111100011000101011111101101110011010011110111110001011101101100110100001101111000110000000101010010000100101000010001100101100110011000110101111011000011010101011001100011110101100000100101011110100000010011010100100100 !
b110001001100011001001100110010101011000001011010010100010111101010010010101110001001110110001010111101011101000100101101100111001101001111100101101101110001111110101100001001001110010011101111111011111100101110100101010101010000100110001010010010011000110111010011111100111110111100011000101011111101101110011010011110111110001011101101100110100001101111000110000000101010010000100101000010001100101100110011000110101111011000011010101011001100011110101100000100101011110100000010011010100100100 /
1%
#330
0%
#331
b11111 $
b11111 ,
b1000011100001010 &
b1000011100001010 -
b110001001100011 "
b110001001100011 .
b11110 #
b11110 +
b100000 )
b11111 *
#335
b10000111000010100110001001100011001001100110010101011000001011010010100010111101010010010101110001001110110001010111101011101000100101101100111001101001111100101101101110001111110101100001001001110010011101111111011111100101110100101010101010000100110001010010010011000110111010011111100111110111100011000101011111101101110011010011110111110001011101101100110100001101111000110000000101010010000100101000010001100101100110011000110101111011000011010101011001100011110101100000100101011110100000010011010100100100 !
b10000111000010100110001001100011001001100110010101011000001011010010100010111101010010010101110001001110110001010111101011101000100101101100111001101001111100101101101110001111110101100001001001110010011101111111011111100101110100101010101010000100110001010010010011000110111010011111100111110111100011000101011111101101110011010011110111110001011101101100110100001101111000110000000101010010000100101000010001100101100110011000110101111011000011010101011001100011110101100000100101011110100000010011010100100100 /
1%
#340
0%
#341
b100000 $
b100000 ,
b10001010000000 &
b10001010000000 -
b1000011100001010 "
b1000011100001010 .
b11111 #
b11111 +
b100001 )
b100000 *
